<svg xmlns="http://www.w3.org/2000/svg" xmlns:xlink="http://www.w3.org/1999/xlink">
	
	<!-- 		
		UI ICONS 		
		// UI icons are always fills, no lines
	-->

	<symbol id="icon_ui_arrow-left" viewBox="0 0 100 100">
		<path d="M59.7,28.6l1.9,1.9L42.2,49.8,61.6,69.1,59.7,71,38.4,49.8Z"/>
	</symbol>

	<symbol id="icon_ui_arrow-right" viewBox="0 0 100 100">
		 <path d="M40.3,71l-1.9-1.9L57.8,49.8,38.4,30.5l1.9-1.9L61.6,49.8Z"/>
	</symbol>

	<symbol id="icon_ui_call" viewBox="0 0 100 100">
		<path d="M69.1,71.52,64.85,62c-.83-1.85-2.59-2.78-4-2.12L56.1,62.1c-2.53,1.17-6.21-1.31-8-5.41l-3.92-8.77a10.26,10.26,0,0,1-.65-7.4,4,4,0,0,1,2-2.33L50.14,36a2.52,2.52,0,0,0,1.28-1.45,4.12,4.12,0,0,0-.2-3L47,22a3.36,3.36,0,0,0-3.76-2L39,20.95a9.15,9.15,0,0,0-1.38.51,11.31,11.31,0,0,0-5.65,6.71c-2.64,7.23-1.3,18.38,3.49,29.1C41.56,71,51.34,80,59.32,80a9.51,9.51,0,0,0,4-.87,8.92,8.92,0,0,0,1.28-.73l3.44-2.69A3.5,3.5,0,0,0,69.1,71.52Z"/>	
	</symbol>

	<symbol id="icon_ui_close" viewBox="0 0 100 100">
		 <path d="M67.7,71.5,50.1,53.9,32.3,71.7l-3.9-3.9L46.2,50,28.4,32.2l3.9-3.9L50.1,46.1,67.7,28.5l3.9,3.9L54,50,71.6,67.6Z"/>
	</symbol>

	<symbol id="icon_ui_facebook" viewBox="0 0 100 100">
		<path d="M63,50H54.48V79.91H42V50H36.1V39.4H42V32.57c0-4.71,2.12-12.48,12.48-12.48h9.19V30.45h-6.6a2.51,2.51,0,0,0-2.59,2.83V39.4H63.9Z"/>
	</symbol>

	<symbol id="icon_ui_googleplus" viewBox="0 0 100 100">
		<path d="M52.09,54.55c-1.72-1.23-4.92-4.18-4.92-5.66,0-2,.49-3,3.45-5.41s5.17-5.66,5.17-9.6c0-4.68-2-9.11-5.91-10.83h5.91l4.18-3H41.51c-8.37,0-16.24,6.4-16.24,13.54,0,7.38,5.66,13.54,14,13.54H41a8,8,0,0,0-1,3.45c0,2,1.23,3.69,2.46,5.17h-3.2c-10.34,0-18.21,6.65-18.21,13.29S29.7,79.9,40,79.9c11.81,0,18.21-6.65,18.21-13.29C58.49,61.44,57,58,52.09,54.55ZM42,45.45C37.32,45.2,32.65,40,31.91,33.88c-.74-6.4,2.46-11.08,7.14-10.83s9.35,5.17,10.09,11.57C50.12,40.52,46.92,45.45,42,45.45ZM40.28,77.2C33.14,77.2,28,72.77,28,67.35s6.4-9.84,13.54-9.6a14.33,14.33,0,0,1,4.68.74c3.94,2.71,6.65,4.18,7.38,7.38a5.42,5.42,0,0,1,.25,2C53.81,72.77,50.12,77.2,40.28,77.2ZM78.92,45.94V51.6H71.78V59H65.87V51.6H58.74V45.94h7.14V38.8h5.91v7.14Z"/>
	</symbol>

	<symbol id="icon_ui_instagram" viewBox="0 0 100 100">
		<path d="M50,25.41c8,0,9,0,12.12.17a16.6,16.6,0,0,1,5.57,1,9.93,9.93,0,0,1,5.69,5.69,16.6,16.6,0,0,1,1,5.57c.14,3.16.17,4.11.17,12.12s0,9-.17,12.12a16.6,16.6,0,0,1-1,5.57,9.93,9.93,0,0,1-5.69,5.69,16.6,16.6,0,0,1-5.57,1c-3.16.14-4.11.17-12.12.17s-9,0-12.12-.17a16.6,16.6,0,0,1-5.57-1,9.93,9.93,0,0,1-5.69-5.69,16.6,16.6,0,0,1-1-5.57C25.44,59,25.41,58,25.41,50s0-9,.17-12.12a16.6,16.6,0,0,1,1-5.57,9.93,9.93,0,0,1,5.69-5.69,16.6,16.6,0,0,1,5.57-1C41,25.44,42,25.41,50,25.41M50,20c-8.15,0-9.17,0-12.37.18a22,22,0,0,0-7.28,1.39,15.34,15.34,0,0,0-8.77,8.77,22,22,0,0,0-1.39,7.28C20,40.83,20,41.85,20,50s0,9.17.18,12.37a22,22,0,0,0,1.39,7.28,15.34,15.34,0,0,0,8.77,8.77,22,22,0,0,0,7.28,1.39C40.83,80,41.85,80,50,80s9.17,0,12.37-.18a22,22,0,0,0,7.28-1.39,15.34,15.34,0,0,0,8.77-8.77,22,22,0,0,0,1.39-7.28C80,59.17,80,58.15,80,50s0-9.17-.18-12.37a22,22,0,0,0-1.39-7.28,15.34,15.34,0,0,0-8.77-8.77,22,22,0,0,0-7.28-1.39C59.17,20,58.15,20,50,20Zm0,14.59A15.41,15.41,0,1,0,65.41,50,15.41,15.41,0,0,0,50,34.59ZM50,60A10,10,0,1,1,60,50,10,10,0,0,1,50,60ZM66,30.39a3.6,3.6,0,1,0,3.6,3.6A3.6,3.6,0,0,0,66,30.39Z"/>
	</symbol>

	<symbol id="icon_ui_linkedin" viewBox="0 0 100 100" >
		<path d="M33.43,77.49H21.88V40.33H33.43ZM34.18,29c0-3.77-2.76-6.53-7-6.53s-7,2.76-7,6.53,2.76,6.53,7,6.53C31.67,35.56,34.18,32.8,34.18,29ZM79.88,56.4c0-11.55-6.53-16.82-14.81-16.82-6.53,0-10.8,3.77-11.55,6.28V40.08H40.46c.25,3,0,37.16,0,37.16H53.52V57.16a11.26,11.26,0,0,1,.25-3c1-2.26,2.76-4.52,6.28-4.52,4.52,0,6.53,3.52,6.53,8.54V77.49H79.88Z"/>
	</symbol>

	<symbol id="icon_ui_quote-left" viewBox="0 0 100 100">
		<path d="M45.3,69.2a1.6,1.6,0,0,0,1.5-1.6V50.8a1.6,1.6,0,0,0-1.6-1.6H35.9c1.3-5.1,5.4-7.9,9.9-9.7a1.6,1.6,0,0,0,.4-2.8L39,31.1a1.6,1.6,0,0,0-1.4-.3C32.1,32.3,28,34.5,25.2,38s-4,8-4,13.6v16a1.6,1.6,0,0,0,1.6,1.6H45.3Zm32.1,0a1.6,1.6,0,0,0,1.5-1.6V50.8a1.6,1.6,0,0,0-1.6-1.6H68c1.3-5.1,5.4-7.9,9.9-9.7a1.6,1.6,0,0,0,.4-2.8L71,31.1a1.6,1.6,0,0,0-1.4-.3C64.2,32.3,60,34.5,57.2,38s-4,8-4,13.6v16a1.6,1.6,0,0,0,1.6,1.6H77.4Z"/>
	</symbol>

	<symbol id="icon_ui_quote-right" viewBox="0 0 100 100">
		 <path d="M54.7,30.8a1.6,1.6,0,0,0-1.5,1.6V49.2a1.6,1.6,0,0,0,1.6,1.6h9.3c-1.3,5.1-5.4,7.9-9.9,9.7a1.6,1.6,0,0,0-.4,2.8L61,68.9a1.6,1.6,0,0,0,1.4.3c5.4-1.5,9.6-3.7,12.4-7.1s4-8,4-13.6v-16a1.6,1.6,0,0,0-1.6-1.6H54.7Zm-32.1,0a1.6,1.6,0,0,0-1.5,1.6V49.2a1.6,1.6,0,0,0,1.6,1.6H32c-1.3,5.1-5.4,7.9-9.9,9.7a1.6,1.6,0,0,0-.4,2.8L29,68.9a1.6,1.6,0,0,0,1.4.3c5.4-1.5,9.6-3.7,12.4-7.1s4-8,4-13.6v-16a1.6,1.6,0,0,0-1.6-1.6H22.6Z"/>
	</symbol>

	<symbol id="icon_ui_scroll-down" viewBox="0 0 100 100">
		<path d="M28.8,40.2l1.9-1.9L50,57.6,69.3,38.3l1.9,1.9L50,61.4Z"/>
	</symbol>

	<symbol id="icon_ui_search" viewBox="0 0 100 100">
		<path d="M29.3,63.1a23.9,23.9,0,1,1,16.9,7A24,24,0,0,1,29.3,63.1Zm35.9.7a26.1,26.1,0,1,0-1.4,1.4L78,79.4A1,1,0,1,0,79.4,78Z"/>	
	</symbol>

	<symbol id="icon_ui_twitter" viewBox="0 0 100 100" >
		<path d="M38.88,74.35c22.62,0,35-18.74,35-35,0-.53,0-1.06,0-1.59A25,25,0,0,0,80,31.41a24.54,24.54,0,0,1-7.06,1.94,12.34,12.34,0,0,0,5.41-6.8,24.64,24.64,0,0,1-7.81,3,12.31,12.31,0,0,0-21,11.21A34.91,34.91,0,0,1,24.2,27.9,12.31,12.31,0,0,0,28,44.31a12.21,12.21,0,0,1-5.57-1.54c0,.05,0,.1,0,.16A12.3,12.3,0,0,0,32.3,55a12.28,12.28,0,0,1-5.55.21,12.31,12.31,0,0,0,11.49,8.54A24.67,24.67,0,0,1,23,69,25,25,0,0,1,20,68.83a34.81,34.81,0,0,0,18.85,5.52"/>
	</symbol>



	<!-- 		
		MENU 		
	-->

	<symbol id="icon_menu_acties" viewBox="0 0 100 100">
		<path d="M48.8,82.9,17,51.2,48.2,19.9H80V51.7Zm15-40.5A6.2,6.2,0,1,1,70,36.2,6.3,6.3,0,0,1,63.8,42.4Z"/>	
	</symbol>

	<symbol id="icon_menu_home" viewBox="0 0 100 100">
		<path d="M73.6,47.4V79.8H26.4V47.4H19.9L50,20.3,80.1,47.4Z"/>
	</symbol>

	<symbol id="icon_menu_more" viewBox="0 0 100 100">
		<path d="M33,57H19V43H33ZM57,43H43V57H57Zm24,0H67V57H81Z"/>
	</symbol>

	<symbol id="icon_menu_over-ons" viewBox="0 0 100 100">
		<path d="M55.6,62.2V75.7H38L25,84.8v-9H18.3V46.3H27m45.6,9.8h8.8V19.1H33V56.2H55.9L72.6,67.6Z"/>
	</symbol>

	<symbol id="icon_menu_referenties" viewBox="0 0 100 100">
		<path d="M55.8,48.3A7.3,7.3,0,1,0,48.5,41,7.3,7.3,0,0,0,55.8,48.3ZM73.2,79.8h-52v-52h52ZM26.9,20.2h52v52M21.4,65.3,37,51.2,50.8,64.9l11.6-9.3L72.8,66.1"/>
	</symbol>

	<symbol id="icon_menu_webshop-1" viewBox="0 0 100 100">
		<path d="M66.4,79.7a5.3,5.3,0,1,1,5.3-5.3A5.2,5.2,0,0,1,66.4,79.7ZM48.2,74.5a5.3,5.3,0,1,0-5.3,5.3A5.2,5.2,0,0,0,48.2,74.5ZM84,27H27l6,37.6H78ZM15,22H29.5"/>
	</symbol>

	<symbol id="icon_menu_webshop-2" viewBox="0 0 100 100">
		<path d="M87.5,50.5h-75v-8h75ZM68.3,46.4m-52.6,4L24.1,81H75.9l8.5-30.6M34.5,46l10-26m21,26-10-26"/>
	</symbol>




	<!-- 		
		SERVICES 		
	-->

	<symbol id="icon_service_24u_klok" viewBox="0 0 100 100">
		<path d="M60.1,61.1,49.5,50.5V31M80,20H20V80H80Z"/>
	</symbol>

	<symbol id="icon_service_24u" viewBox="0 0 100 100">
		<path d="M33.1,42.9H45.9v9.6H33.1v8.9H45.9m5.5-18.9v10H66.9m-4.6-10v19m25.2-28h-75v37h75Z"/>
	</symbol>

	<symbol id="icon_service_airconditioning" viewBox="0 0 100 100">
		<path d="M70.9,59A23.1,23.1,0,0,1,59.7,70.6c-2-10.2-7-13.5-7-13.5.2,8.2-2.6,13.1-4.7,15.6a22.6,22.6,0,0,1-14.5-7.1c9.1-5.1,10.7-10.8,10.7-10.8-7.7,2.7-13.3,1.5-16.3.3a22.7,22.7,0,0,1,2.2-16c7.7,7.1,13.6,6.8,13.6,6.8-5-6.5-5.6-12.1-5.4-15.3a22.6,22.6,0,0,1,11.6-3.2,22.8,22.8,0,0,1,4.3.4c-4.4,9.5-2.3,15-2.3,15,4.7-6.7,9.8-9,12.9-9.8a22.6,22.6,0,0,1,7.6,14.2c-10.4-1.2-15,2.5-15,2.5S69.9,51.3,70.9,59ZM50,46.2A3.8,3.8,0,1,0,53.8,50,3.8,3.8,0,0,0,50,46.2Zm0-26.7A30.5,30.5,0,1,0,80.5,50,30.5,30.5,0,0,0,50,19.5Z"/>
	</symbol>

	<symbol id="icon_service_cv-ketel-1" viewBox="0 0 100 100">
		<path d="M26.7,73.8H73.1M13,30.7h8.4M13,56.5h8.4M78.1,30.7h8.4M78.3,56.5h8.4m-30,9.7a6.8,6.8,0,1,1-13.5,0c0-1.8.7-3,1.9-4.6a75.6,75.6,0,0,1,5-5.8l4.9,5.8A8.2,8.2,0,0,1,56.8,66.3Zm-3.2,3.3a3.5,3.5,0,0,1-7.1,0,4.2,4.2,0,0,1,1-2.4A39.7,39.7,0,0,1,50,64l2.6,3.1A4.3,4.3,0,0,1,53.5,69.5ZM78.5,82h-57V18h57Z"/>
	</symbol>

	<symbol id="icon_service_cv-ketel-2" viewBox="0 0 100 100">
		<path d="M26.8,65.8H73.2M54.9,50.7l-4.9-5.8a75.6,75.6,0,0,0-5,5.8c-1.1,1.7-1.9,2.8-1.9,4.6a6.8,6.8,0,1,0,13.5,0A8.2,8.2,0,0,0,54.9,50.7Zm-2.3,5.4L50,53a39.7,39.7,0,0,0-2.6,3.1,4.2,4.2,0,0,0-1,2.4,3.5,3.5,0,0,0,7.1,0A4.3,4.3,0,0,0,52.6,56.1ZM73,18H27V82H73ZM50,70.5a3,3,0,1,0,3,3A3,3,0,0,0,50,70.5Z"/>
	</symbol>

	<symbol id="icon_service_dakwerkzaamheden" viewBox="0 0 100 100">
		<path d="M27.3,65.9H14L28.5,53.3V40.1h8.7v5.4L50,34.2,86,65.9H72.7L50,45.9Z"/>
	</symbol>

	<symbol id="icon_service_duurzaamheid" viewBox="0 0 100 100">
		<path d="M55.7,28.9m21.9-11h0Zm0,0c-6,7,1,22-2,33-2,7-7,9-13.1,9a18.5,18.5,0,0,1-5.9-1c-9-3-13.9-12.5-8-22s29-19,29-19ZM20.7,59.4m6.9-5.6s11.8.8,16.3,4.9,3.1,8.8-.7,11.5a8.1,8.1,0,0,1-4.6,1.6,7.1,7.1,0,0,1-5.4-2.7c-3.5-4.3-1.8-12.8-5.6-15.2Zm35.1-15s-15,19-15,44m-20,0h48"/>
	</symbol>

	<symbol id="icon_service_electriciteit" viewBox="0 0 100 100">
		<path d="M59.4,16.6,41.3,51.1l25.1-7.8L52.5,73.4,58.1,72l-9,10.7L47,69.9l4,3.2,6.1-22.8L33.6,58.4,50.4,16.9Z"/>
	</symbol>

	<symbol id="icon_service_gas" viewBox="0 0 100 100">
		<path d="M29.3,25.6c.7.1-1,4.6-.1,9.7S40.3,56.8,39.9,62.6c-.3,3.7-8.7,12.3-9.6,11.7s2.6-6.1,1.3-11S20.9,43,20.9,36.5c0-4.7,7.7-11.2,8.3-10.9Zm19.3-6.6C47.8,18.7,38,26.9,38,32.9c0,8.2,11.4,26.8,13.4,34s-2.8,13.6-1.6,13.9S61.6,70.7,62,66c.5-7.4-12.5-29-13.5-34.6s.9-12.2.1-12.4Zm19.9,6.6c-.6-.3-8.3,6.1-8.3,10.9,0,6.5,9,21.2,10.5,26.8s-2.2,10.7-1.3,11,9.3-8,9.6-11.7c.4-5.8-9.8-22.9-10.6-27.3s.7-9.6.1-9.7Z"/>
	</symbol>

	<symbol id="icon_service_gebroken-pijp" viewBox="0 0 100 100">
		<path d="M20.5,57.5h-6v-25h6m0,29h11v-33h-11Zm59-4h6v-25h-6m-48,25h37m0-25h-37m37,29h11v-33h-11Zm-13-11h-9v3H41.4v4m5.3,13.8A4.7,4.7,0,0,1,41.9,76h-.7a4.7,4.7,0,0,1-4.2-7l4.6-7,4.5,7A4.8,4.8,0,0,1,46.6,71.3Z"/>
	</symbol>
	
	<symbol id="icon_service_hand" viewBox="0 0 100 100">
		<path d="M70.8,62h3.6l.4-1.7.9-.4,1.5.9,2.6-2.6-.9-1.5.4-.9,1.7-.4V51.8l-1.7-.4-.4-.9.9-1.5-2.6-2.6-1.5.9-.9-.4-.4-1.7H70.8l-.4,1.7-.9.4-1.5-.9-2.6,2.6.9,1.5-.4.9-1.7.4v3.6l1.7.4.4.9-.9,1.5,2.6,2.6,1.5-.9.9.4Zm-2.1-8.4a3.9,3.9,0,1,1,3.9,3.9A3.9,3.9,0,0,1,68.7,53.6Zm-15.1-8,1.6,1.9,4.5-1.9-.2-2.5a12.7,12.7,0,0,0,2.6-2.6l2.5.2,1.9-4.5-1.9-1.6a12.7,12.7,0,0,0,0-3.7l1.9-1.6-1.9-4.5-2.5.2a12.7,12.7,0,0,0-2.6-2.6l.2-2.5L55.2,18l-1.6,1.9a12.7,12.7,0,0,0-3.7,0L48.2,18l-4.5,1.9.2,2.5a12.7,12.7,0,0,0-2.6,2.6l-2.5-.2L37,29.2l1.9,1.6a12.7,12.7,0,0,0,0,3.7L37,36.2l1.9,4.5,2.5-.2a12.7,12.7,0,0,0,2.6,2.6l-.2,2.5,4.5,1.9,1.6-1.9A12.7,12.7,0,0,0,53.6,45.5Zm-9-9.9a7.8,7.8,0,1,1,10.2,4.2A7.7,7.7,0,0,1,44.5,35.7ZM64.7,72.6H75.3L78,74.1v4.4l-2.7,1.6H53.5L36.8,67.6H18V55H43.9l5.5,2.4L62.8,70.7v1.6l-2.6,2.5H58.5l-8.3-7.2"/>
	</symbol>

	<symbol id="icon_service_lekkende-kraan" viewBox="0 0 100 100">
		<path d="M37.4,64.3,36,66.7c-.9,1.7-4,7.3-4,9.6a5.3,5.3,0,1,0,10.7,0c0-2.3-3.1-7.9-4-9.6ZM76.5,47.5h-54V30.6h54Zm-30.5.2V59.1H28.7V47.7M63.5,30.6V21.9m-12.6-.4H76.1"/>
	</symbol>

	<symbol id="icon_service_luchtbehandeling" viewBox="0 0 100 100">
		<path d="M50,72.1A22.1,22.1,0,1,1,72.1,50,22.1,22.1,0,0,1,50,72.1Zm0-15.7A6.3,6.3,0,1,1,56.3,50,6.3,6.3,0,0,1,50,56.3ZM80,80H20V20H80ZM26.7,29.6a3,3,0,1,1,3-3A3,3,0,0,1,26.7,29.6Zm46.4,0a3,3,0,1,1,3-3A3,3,0,0,1,73,29.6ZM26.7,76a3,3,0,1,1,3-3A3,3,0,0,1,26.7,76ZM73,76a3,3,0,1,1,3-3A3,3,0,0,1,73,76ZM69,38.7l-1.3.3a18.1,18.1,0,0,0-8.5,4.9m2.2-12.9-.5.3a20.7,20.7,0,0,0-8.5,7.9M71.4,55.5l-1.2-.7a18.1,18.1,0,0,0-9.4-2.5m10.7-7.5-.6-.2A23.5,23.5,0,0,0,64,43.4a17.5,17.5,0,0,0-4.8.7M61.3,69l-.3-1.4A18.1,18.1,0,0,0,56,59.1m12.9,2.2-.3-.5a20.7,20.7,0,0,0-7.9-8.5M44.5,71.4l.7-1.2a18.1,18.1,0,0,0,2.5-9.4m7.5,10.7.2-.6A20.7,20.7,0,0,0,56,59.2M31,61.3l1.4-.3A18.1,18.1,0,0,0,40.9,56M38.7,68.9l.5-.3a20.7,20.7,0,0,0,8.5-7.9M28.6,44.5l1.2.7a18,18,0,0,0,9.4,2.5M28.6,55.2v.2l.6.2A23.6,23.6,0,0,0,36,56.6h0a17.6,17.6,0,0,0,4.8-.7M38.7,31l.3,1.4A18.1,18.1,0,0,0,44,40.9M31.1,38.7l.3.5a20.7,20.7,0,0,0,7.9,8.5M55.4,28.6l-.7,1.2a18.1,18.1,0,0,0-2.5,9.4M44.6,28.6l-.2.6A20.6,20.6,0,0,0,44,40.8m6,20.3A11.1,11.1,0,1,1,61.1,50,11.1,11.1,0,0,1,50,61.1Z"/>
	</symbol>

	<symbol id="icon_service_onderhoud-1" viewBox="0 0 100 100">
		<path class="cls-1" d="M59.9,42.8l4.7-4.7m.5,9.9,4.7-4.7m0,9.4L74.4,48M29.2,54.8l-9.9,9.9L42.2,87.6l9.9-9.9Zm26-18.2-8.8-8.8V21.5l-5.7-5.7H33.1l5.6,5.6-5.2,5.2L27.9,21v7l6.2,6.2h5.7L43,37.4m6.8,38,5.2-5.2,7.8-1.6L77.2,54.1l-.4-3.7L61.2,34.8H57l-8.3,8.3L43,37.4l-5.7,5.7-.5,8.8-5.2,5.2m37.2,5.5L73,66.9h3.4l3.1-3.1V60.4l-4.3-4.3"/>
	</symbol>

	<symbol id="icon_service_onderhoud-2" viewBox="0 0 100 100">
		<path d="M33,76,19.5,80.5,24,67ZM79.5,24.4l-3.9-3.9a3.6,3.6,0,0,0-5.1,0L67.1,24l9,9,3.4-3.4A3.6,3.6,0,0,0,79.5,24.4ZM66.2,55.4l-3.7-3.7-7.2,7.2,2.3,2.3L54,64.7l2.8,2.8L60.4,64,63,66.5l-3.6,3.6L62.2,73l3.6-3.6,2.5,2.5-3.6,3.6,5,5L80.5,69.7ZM26.6,64.5l9,9,38-38-9-9ZM50.9,40.1,30.3,19.5,19.5,30.3l5,5,3.6-3.6,2.5,2.5-3.6,3.6,2.8,2.8,3.6-3.6,2.5,2.5-3.6,3.6L35.3,46l3.6-3.6L41.4,45l-3.6,3.6,2.3,2.3"/>
	</symbol>

	<symbol id="icon_service_onderhoud-3" viewBox="0 0 100 100">
		<path d="M20,35.6H80v8.2H20Zm16.4-9.3v6.8h2.7V27.6l1.4-1.4H59.5l1.4,1.4v5.5h2.7V26.2l-2.7-2.7H39.1ZM62.3,46.5v8.4l-2.7,2.7H40.5l-2.7-2.7V46.5H20v30H80v-30Zm-8.2,4.3A4.1,4.1,0,1,0,50,54.9a4.1,4.1,0,0,0,4.1-4.1"/>
	</symbol>

	<symbol id="icon_service_ontstopper" viewBox="0 0 100 100">
		<path d="M66.5,51.6,51.6,66.5l-3.5-3.5L62.9,48.1ZM51.6,66.5l4.2,17L83.5,55.9l-17-4.2m-7.1,0-3.5-3.5-7.8,7.8,3.5,3.5m2.1-9.2L19.8,16.3l-3.5,3.5L50.2,53.8"/>
	</symbol>

	<symbol id="icon_service_ontzorgexpert" viewBox="0 0 100 100">
		<path d="M86.5,38.1,68.4,20a.4.4,0,0,0-.5,0L13.8,74.5a.4.4,0,0,0-.1.4.4.4,0,0,0,.3.2H25.5v5.4"/>
	</symbol>

	<symbol id="icon_service_riolering" viewBox="0 0 100 100">
		<path d="M68.7,31H49.1V21.6H68.7ZM87.5,60V40.3H78.1V60ZM51.9,31V57.2H78.1M65.9,31V43.2H78.1M31.3,78.4H50.9V69H31.3ZM12.5,40V59.7h9.4V40ZM48.1,69V42.8H21.9M34.1,69V56.8H21.9"/>
	</symbol>

	<symbol id="icon_service_sanitair-douche" viewBox="0 0 100 100">
		<path d="M58.5,26.5v-8h-34v65m18-57h31M46.5,29v4m5.8-4v8M58,29v4m11.5-4v4m-5.7-4v8M46.5,38v4m5.8,0v8M58,38v8m0,4V62.5M69.5,38v4m-23,4.5v16m23-16v16M52.2,54v4m11.5-4v4m0-16v8"/>
	</symbol>

	<!--<symbol id="icon_service_storing" viewBox="0 0 100 100">
		<path d="M79.2,66.5,56.4,26.1A7.2,7.2,0,0,0,50,22.4a7.3,7.3,0,0,0-6.4,3.7L20.8,66.5a7.3,7.3,0,0,0,0,7.4,7.2,7.2,0,0,0,6.4,3.7H72.9a7.2,7.2,0,0,0,6.4-3.8A7.3,7.3,0,0,0,79.2,66.5Z"/>
		<path d="M50.9,67a.9.9,0,1,1-1.9,0,.9.9,0,1,1,1.9,0"/>
		<line x1="50" y1="38.3" x2="50" y2="61.6"/>
	</symbol>-->

	<symbol id="icon_service_sifon" viewBox="0 0 100 100">
		<path d="M71.2,30V58.4h-24M58,37H74.5M30,76H50V66H30Zm3.2-42V66h14V34ZM30,34H50V24H30ZM47,24V19.5H33V24m0,52v4.5H47V76m.2-27.9H61V30"/>
	</symbol>

	<symbol id="icon_service_thermometer" viewBox="0 0 100 100">
		<path d="M32.9,27.3H41m-8.1,8.1h5.5m-5.5,8.2H41M32.9,59.8H41m-8.1-8.1H67.5m0-36.2h-35v69h35ZM53,63.1V22.5H47V63.1a8,8,0,1,0,6,0Z"/>
	</symbol>

	<symbol id="icon_service_thermostaat" viewBox="0 0 100 100">
		<path d="M80,80H20V20H80ZM73,48.5C73,38.8,62.7,31,50,31S27,38.8,27,48.5l23,12Zm-23,12-10-18m-5,27A4.5,4.5,0,1,0,30.5,74,4.5,4.5,0,0,0,35,69.5Zm38.5.5A4.5,4.5,0,1,0,69,74.5,4.5,4.5,0,0,0,73.5,70Z"/>
	</symbol>

	<symbol id="icon_service_verwarming-1" viewBox="0 0 100 100">
		<path d="M80,70.8H20.2V25.3H80Zm7.8-39.4H82.6v3.9h5.2ZM25.4,70.8v3.9h7.2V70.8m35.1,0v3.9h7.2V70.8M30.3,30.2H25.1V65.9h5.2Zm11.4,0H36.4V65.9h5.2Zm34.1,0H70.6V65.9h5.2ZM53,30.2H47.8V65.9H53Zm11.4,0H59.2V65.9h5.2Z"/>
	</symbol>

	<symbol id="icon_service_verwarming-2" viewBox="0 0 100 100">
		<path d="M70.3,17.7a6.7,6.7,0,0,1,0,6.9,6.3,6.3,0,0,0,0,6.7m-4.3,0a6.3,6.3,0,0,1,0-6.7,6.7,6.7,0,0,0,0-6.9M61.8,31.2a6.3,6.3,0,0,1,0-6.7,6.7,6.7,0,0,0,0-6.9M76.3,38.3V37.1l4.5.3v3.5l-4.5.3V38.3Zm-2.1,1.6V82.1H21.9V79.5H19.1V77.9h2.8V33.7H74.2v6.2Zm2-.8H74.6m-49-.7h4m-2,.4v39m4.8-39.4h4m-2,.4v39m4.8-39.4h4m-2,.4v39m4.8-39.4h4m-2,.4v39m4.8-39.4h4m-2,.4v39m4.8-39.4h4m-2,.4v39m4.8-39.4h4m-2,.4v39"/>
	</symbol>


	<symbol id="icon_service_warmtepomp" viewBox="0 0 100 100">
		<path d="M25.2,44.1V81.4m4.5-37.2V81.4m4.5-37.2V81.4m4.5-37.2V81.4m4.5-37.2V81.4m4.5-37.2V81.4m4.5-37.2V81.4m4.5-37.2V81.4m4.5-37.2V81.4m4.5-37.2V81.4m4.5-37.2V81.4m4.5-37.2V81.4m6.9-37.9H18.3V82H81.7Zm-14-12.1,4.1-4.1-4.1-4.1m3.8,4.1H58.9V43.6M32.3,23.2l-4.1,4.1,4.1,4.1m8.8,12.2V27.3H28.4m25.6-5.2L50,18l-4.1,4.1M50,43.6V18.1"/>
	</symbol>

	<symbol id="icon_service_water" viewBox="0 0 100 100">
		<path d="M57.3,72.9a17.8,17.8,0,0,1-31,0,16.5,16.5,0,0,1-.2-16.6L41.8,31.4l15.7,25a16.3,16.3,0,0,1-.2,16.5ZM74.7,43.3a10.9,10.9,0,0,1-19,0,10.1,10.1,0,0,1-.1-10.1L65.2,18l9.6,15.3a10,10,0,0,1-.1,10.1Z"/>
	</symbol>


	<symbol id="icon_service_zonneenergie" viewBox="0 0 100 100">
		<path d="M50,41.7a7.5,7.5,0,1,0-7.5-7.5A7.5,7.5,0,0,0,50,41.7Zm0-25.4v6.4m0,23.4v6.4m0,21.6v7.3m18.1-47H61.7m-23.4,0H31.9M62.8,21.7l-4.5,4.5M37.2,47.3l4.5-4.5m16.6,0,4.5,4.5M41.7,26.2l-4.5-4.5M82.5,74.5h-65l8-15h49Zm-39,7h13"/>
	</symbol>


	<!--		
		TOPTASKS 		
	-->

	<symbol id="icon_toptask_bellen" viewBox="0 0 100 100">
  		<path d="M66.1,65l13.4,1.9-.8,12.6C63,79.7,50.8,78,36.8,64S20.5,37.1,20.5,21.4l12.6-.8L35.1,34l-6.9,8.5A65.9,65.9,0,0,0,40.7,60.2,55.5,55.5,0,0,0,57.7,72Z"/>
	</symbol>

	<symbol id="icon_toptask_informatie" viewBox="0 0 100 100">
		<path d="M49,20.1a3,3,0,1,0,3,3A3,3,0,0,0,49,20.1ZM41,33.3h8V79.7m-9,.3H58"/>
	</symbol>

	<symbol id="icon_toptask_mail" viewBox="0 0 100 100">
		<path d="M79.5,31.9,50,54,20.5,31.9m59.1,0H20.4V68.1H79.6Z"/>
	</symbol>

	<symbol id="icon_toptask_offerte" viewBox="0 0 100 100">
		<path class="cls-1" d="M51.1,44.9H36.4m27.2,8.2H36.4m27.2,8.2H36.4m27.2,8.2H36.4M59.6,19.8H28.1V80.1H71.9V32.2Zm0,0V32.2H71.9"/>
	</symbol>

	<symbol id="icon_toptask_storing" viewBox="0 0 100 100">
		<path d="M51,70.2a1,1,0,1,1-2,0,1,1,0,1,1,2,0"/>
  		<path d="M50,39.5v25M32.6,50.2,15.2,80.1H84.8L67.4,50.2,50,20.4Z"/>
	</symbol>
  		

</svg>



