<svg xmlns="http://www.w3.org/2000/svg" xmlns:xlink="http://www.w3.org/1999/xlink">
	
	<!-- 		
		UI ICONS 		
		// UI icons are always fills, no lines
	-->

	<symbol id="icon_ui_arrow-left" viewBox="0 0 100 100">
		<path d="M59.7,28.6l1.9,1.9L42.2,49.8,61.6,69.1,59.7,71,38.4,49.8Z"/>
	</symbol>

	<symbol id="icon_ui_arrow-right" viewBox="0 0 100 100">
		 <path d="M40.3,71l-1.9-1.9L57.8,49.8,38.4,30.5l1.9-1.9L61.6,49.8Z"/>
	</symbol>

	<symbol id="icon_ui_call" viewBox="0 0 100 100">
		<path d="M69.1,71.52,64.85,62c-.83-1.85-2.59-2.78-4-2.12L56.1,62.1c-2.53,1.17-6.21-1.31-8-5.41l-3.92-8.77a10.26,10.26,0,0,1-.65-7.4,4,4,0,0,1,2-2.33L50.14,36a2.52,2.52,0,0,0,1.28-1.45,4.12,4.12,0,0,0-.2-3L47,22a3.36,3.36,0,0,0-3.76-2L39,20.95a9.15,9.15,0,0,0-1.38.51,11.31,11.31,0,0,0-5.65,6.71c-2.64,7.23-1.3,18.38,3.49,29.1C41.56,71,51.34,80,59.32,80a9.51,9.51,0,0,0,4-.87,8.92,8.92,0,0,0,1.28-.73l3.44-2.69A3.5,3.5,0,0,0,69.1,71.52Z"/>	
	</symbol>

	<symbol id="icon_ui_close" viewBox="0 0 100 100">
		 <path d="M67.7,71.5,50.1,53.9,32.3,71.7l-3.9-3.9L46.2,50,28.4,32.2l3.9-3.9L50.1,46.1,67.7,28.5l3.9,3.9L54,50,71.6,67.6Z"/>
	</symbol>

	<symbol id="icon_ui_facebook" viewBox="0 0 100 100">
		<path d="M63,50H54.48V79.91H42V50H36.1V39.4H42V32.57c0-4.71,2.12-12.48,12.48-12.48h9.19V30.45h-6.6a2.51,2.51,0,0,0-2.59,2.83V39.4H63.9Z"/>
	</symbol>

	<symbol id="icon_ui_googleplus" viewBox="0 0 100 100">
		<path d="M52.09,54.55c-1.72-1.23-4.92-4.18-4.92-5.66,0-2,.49-3,3.45-5.41s5.17-5.66,5.17-9.6c0-4.68-2-9.11-5.91-10.83h5.91l4.18-3H41.51c-8.37,0-16.24,6.4-16.24,13.54,0,7.38,5.66,13.54,14,13.54H41a8,8,0,0,0-1,3.45c0,2,1.23,3.69,2.46,5.17h-3.2c-10.34,0-18.21,6.65-18.21,13.29S29.7,79.9,40,79.9c11.81,0,18.21-6.65,18.21-13.29C58.49,61.44,57,58,52.09,54.55ZM42,45.45C37.32,45.2,32.65,40,31.91,33.88c-.74-6.4,2.46-11.08,7.14-10.83s9.35,5.17,10.09,11.57C50.12,40.52,46.92,45.45,42,45.45ZM40.28,77.2C33.14,77.2,28,72.77,28,67.35s6.4-9.84,13.54-9.6a14.33,14.33,0,0,1,4.68.74c3.94,2.71,6.65,4.18,7.38,7.38a5.42,5.42,0,0,1,.25,2C53.81,72.77,50.12,77.2,40.28,77.2ZM78.92,45.94V51.6H71.78V59H65.87V51.6H58.74V45.94h7.14V38.8h5.91v7.14Z"/>
	</symbol>

	<symbol id="icon_ui_instagram" viewBox="0 0 100 100">
		<path d="M50,25.41c8,0,9,0,12.12.17a16.6,16.6,0,0,1,5.57,1,9.93,9.93,0,0,1,5.69,5.69,16.6,16.6,0,0,1,1,5.57c.14,3.16.17,4.11.17,12.12s0,9-.17,12.12a16.6,16.6,0,0,1-1,5.57,9.93,9.93,0,0,1-5.69,5.69,16.6,16.6,0,0,1-5.57,1c-3.16.14-4.11.17-12.12.17s-9,0-12.12-.17a16.6,16.6,0,0,1-5.57-1,9.93,9.93,0,0,1-5.69-5.69,16.6,16.6,0,0,1-1-5.57C25.44,59,25.41,58,25.41,50s0-9,.17-12.12a16.6,16.6,0,0,1,1-5.57,9.93,9.93,0,0,1,5.69-5.69,16.6,16.6,0,0,1,5.57-1C41,25.44,42,25.41,50,25.41M50,20c-8.15,0-9.17,0-12.37.18a22,22,0,0,0-7.28,1.39,15.34,15.34,0,0,0-8.77,8.77,22,22,0,0,0-1.39,7.28C20,40.83,20,41.85,20,50s0,9.17.18,12.37a22,22,0,0,0,1.39,7.28,15.34,15.34,0,0,0,8.77,8.77,22,22,0,0,0,7.28,1.39C40.83,80,41.85,80,50,80s9.17,0,12.37-.18a22,22,0,0,0,7.28-1.39,15.34,15.34,0,0,0,8.77-8.77,22,22,0,0,0,1.39-7.28C80,59.17,80,58.15,80,50s0-9.17-.18-12.37a22,22,0,0,0-1.39-7.28,15.34,15.34,0,0,0-8.77-8.77,22,22,0,0,0-7.28-1.39C59.17,20,58.15,20,50,20Zm0,14.59A15.41,15.41,0,1,0,65.41,50,15.41,15.41,0,0,0,50,34.59ZM50,60A10,10,0,1,1,60,50,10,10,0,0,1,50,60ZM66,30.39a3.6,3.6,0,1,0,3.6,3.6A3.6,3.6,0,0,0,66,30.39Z"/>
	</symbol>

	<symbol id="icon_ui_linkedin" viewBox="0 0 100 100" >
		<path d="M33.43,77.49H21.88V40.33H33.43ZM34.18,29c0-3.77-2.76-6.53-7-6.53s-7,2.76-7,6.53,2.76,6.53,7,6.53C31.67,35.56,34.18,32.8,34.18,29ZM79.88,56.4c0-11.55-6.53-16.82-14.81-16.82-6.53,0-10.8,3.77-11.55,6.28V40.08H40.46c.25,3,0,37.16,0,37.16H53.52V57.16a11.26,11.26,0,0,1,.25-3c1-2.26,2.76-4.52,6.28-4.52,4.52,0,6.53,3.52,6.53,8.54V77.49H79.88Z"/>
	</symbol>

	<symbol id="icon_ui_quote-left" viewBox="0 0 100 100">
		<path d="M45.3,69.2a1.6,1.6,0,0,0,1.5-1.6V50.8a1.6,1.6,0,0,0-1.6-1.6H35.9c1.3-5.1,5.4-7.9,9.9-9.7a1.6,1.6,0,0,0,.4-2.8L39,31.1a1.6,1.6,0,0,0-1.4-.3C32.1,32.3,28,34.5,25.2,38s-4,8-4,13.6v16a1.6,1.6,0,0,0,1.6,1.6H45.3Zm32.1,0a1.6,1.6,0,0,0,1.5-1.6V50.8a1.6,1.6,0,0,0-1.6-1.6H68c1.3-5.1,5.4-7.9,9.9-9.7a1.6,1.6,0,0,0,.4-2.8L71,31.1a1.6,1.6,0,0,0-1.4-.3C64.2,32.3,60,34.5,57.2,38s-4,8-4,13.6v16a1.6,1.6,0,0,0,1.6,1.6H77.4Z"/>
	</symbol>

	<symbol id="icon_ui_quote-right" viewBox="0 0 100 100">
		 <path d="M54.7,30.8a1.6,1.6,0,0,0-1.5,1.6V49.2a1.6,1.6,0,0,0,1.6,1.6h9.3c-1.3,5.1-5.4,7.9-9.9,9.7a1.6,1.6,0,0,0-.4,2.8L61,68.9a1.6,1.6,0,0,0,1.4.3c5.4-1.5,9.6-3.7,12.4-7.1s4-8,4-13.6v-16a1.6,1.6,0,0,0-1.6-1.6H54.7Zm-32.1,0a1.6,1.6,0,0,0-1.5,1.6V49.2a1.6,1.6,0,0,0,1.6,1.6H32c-1.3,5.1-5.4,7.9-9.9,9.7a1.6,1.6,0,0,0-.4,2.8L29,68.9a1.6,1.6,0,0,0,1.4.3c5.4-1.5,9.6-3.7,12.4-7.1s4-8,4-13.6v-16a1.6,1.6,0,0,0-1.6-1.6H22.6Z"/>
	</symbol>

	<symbol id="icon_ui_scroll-down" viewBox="0 0 100 100">
		<path d="M28.8,40.2l1.9-1.9L50,57.6,69.3,38.3l1.9,1.9L50,61.4Z"/>
	</symbol>

	<symbol id="icon_ui_search" viewBox="0 0 100 100">
		<path d="M29.3,63.1a23.9,23.9,0,1,1,16.9,7A24,24,0,0,1,29.3,63.1Zm35.9.7a26.1,26.1,0,1,0-1.4,1.4L78,79.4A1,1,0,1,0,79.4,78Z"/>	
	</symbol>

	<symbol id="icon_ui_twitter" viewBox="0 0 100 100" >
		<path d="M38.88,74.35c22.62,0,35-18.74,35-35,0-.53,0-1.06,0-1.59A25,25,0,0,0,80,31.41a24.54,24.54,0,0,1-7.06,1.94,12.34,12.34,0,0,0,5.41-6.8,24.64,24.64,0,0,1-7.81,3,12.31,12.31,0,0,0-21,11.21A34.91,34.91,0,0,1,24.2,27.9,12.31,12.31,0,0,0,28,44.31a12.21,12.21,0,0,1-5.57-1.54c0,.05,0,.1,0,.16A12.3,12.3,0,0,0,32.3,55a12.28,12.28,0,0,1-5.55.21,12.31,12.31,0,0,0,11.49,8.54A24.67,24.67,0,0,1,23,69,25,25,0,0,1,20,68.83a34.81,34.81,0,0,0,18.85,5.52"/>
	</symbol>



	<!-- 		
		MENU 		
	-->

	<symbol id="icon_menu_acties" viewBox="0 0 100 100">
		<path d="M48.2,19.9,17,51.2,48.8,82.9,80,51.7V19.9ZM63.8,42.4A6.2,6.2,0,1,1,70,36.2,6.3,6.3,0,0,1,63.8,42.4Z"/>
	</symbol>

	<symbol id="icon_menu_home" viewBox="0 0 100 100">
		<path d="M73.6,47.4V79.8H26.4V47.4H19.9L50,20.3,80.1,47.4Z"/>
	</symbol>

	<symbol id="icon_menu_more" viewBox="0 0 100 100">
		  <path d="M33,57H19V43H33ZM57,43H43V57H57Zm24,0H67V57H81Z"/>
	</symbol>

	<symbol id="icon_menu_over-ons" viewBox="0 0 100 100">
		<path d="M55.6,62.2V75.7H38L25,84.8v-9H18.3V46.3H27V62.2Zm17-6h8.8V19.1H33V56.2H55.9L72.6,67.6Z"/>
	</symbol>

	<symbol id="icon_menu_referenties" viewBox="0 0 100 100">
		<path d="M73.5,67.3V79.5h-52V65.7L36.1,52.5,51,67.4,63.4,57.3Zm0-39.8V63.3l-9.9-9.8L51.2,63.6l-15-14.9L21.5,61.9V27.5ZM63.1,41a7.3,7.3,0,1,0-7.3,7.3A7.3,7.3,0,0,0,63.1,41ZM80.3,20.8H26.9v2.8H77.4V74.2h2.8Z"/>
	</symbol>

	<symbol id="icon_menu_webshop-1" viewBox="0 0 100 100">
		<path d="M66.4,79.7a5.3,5.3,0,1,1,5.3-5.3A5.2,5.2,0,0,1,66.4,79.7ZM48.2,74.5a5.3,5.3,0,1,0-5.3,5.3A5.2,5.2,0,0,0,48.2,74.5ZM84,27H27l6,37.6H78ZM29.5,20.6H15v2.8H29.5Z"/>
	</symbol>

	<symbol id="icon_menu_webshop-2" viewBox="0 0 100 100">
		<path d="M16.5,53.5h67L75.9,81H24.1Zm49.3-11L54,19.3l-2.5,1.3,11.1,22H37l11.1-22-2.5-1.3L33.9,42.5H12.5v8h75v-8Z"/>
	</symbol>




	<!-- 		
		SERVICES 		
	-->

	<symbol id="icon_service_24u_klok" viewBox="0 0 100 100">
		<path d="M20,20V80H80V20ZM59.1,62.1l-11-11V31h2.8V49.9L61.1,60.1Z"/>
	</symbol>

	<symbol id="icon_service_24u" viewBox="0 0 100 100">
		<path d="M12.5,33.5v37h75v-37ZM45.3,53.9H32.5V60H45.3v2.8H29.7V51.1H42.4V44.3H29.7V41.5H45.3Zm25,0H65.8v9H62.9v-9h-11V41.1h2.8v10h8.2v-10h2.8v10h4.6Z"/>
	</symbol>

	<symbol id="icon_service_airconditioning" viewBox="0 0 100 100">
		<path d="M50,19.5A30.5,30.5,0,1,0,80.5,50,30.5,30.5,0,0,0,50,19.5ZM70.9,59A23.1,23.1,0,0,1,59.7,70.6c-2-10.2-7-13.5-7-13.5.2,8.2-2.6,13.1-4.7,15.6a22.6,22.6,0,0,1-14.5-7.1c9.1-5.1,10.7-10.8,10.7-10.8-7.7,2.7-13.3,1.5-16.3.3a22.7,22.7,0,0,1,2.2-16c7.7,7.1,13.6,6.8,13.6,6.8-5-6.5-5.6-12.1-5.4-15.3a22.6,22.6,0,0,1,11.6-3.2,22.8,22.8,0,0,1,4.3.4c-4.4,9.5-2.3,15-2.3,15,4.7-6.7,9.8-9,12.9-9.8a22.6,22.6,0,0,1,7.6,14.2c-10.4-1.2-15,2.5-15,2.5S69.9,51.3,70.9,59ZM50,46.2A3.8,3.8,0,1,0,53.8,50,3.8,3.8,0,0,0,50,46.2Z"/>
	</symbol>

	<symbol id="icon_service_cv-ketel-1" viewBox="0 0 100 100">
		<path d="M53.5,69.5a3.5,3.5,0,0,1-7.1,0,4.2,4.2,0,0,1,1-2.4A39.7,39.7,0,0,1,50,64l2.6,3.1A4.3,4.3,0,0,1,53.5,69.5Zm25-14.4v-23h8.1V29.2H78.5V18h-57V29.2H13v2.8h8.5v23H13V58h8.5V82h57V58h8.2V55.1ZM73.1,76H26.7V73H49.3a6.8,6.8,0,0,1-6.1-6.7c0-1.8.7-3,1.9-4.6a75.6,75.6,0,0,1,5-5.8l4.9,5.8a8.2,8.2,0,0,1,1.8,4.6A6.8,6.8,0,0,1,50.7,73H73.1Z"/>
	</symbol>

	<symbol id="icon_service_cv-ketel-2" viewBox="0 0 100 100">
		<path d="M73,64.4V18H27V64.4ZM45.1,50.6a75.6,75.6,0,0,1,5-5.8l4.9,5.8a8.2,8.2,0,0,1,1.8,4.6,6.8,6.8,0,0,1-13.5,0C43.2,53.5,44,52.3,45.1,50.6Zm7.5,5.5L50,53a39.7,39.7,0,0,0-2.6,3.1,4.2,4.2,0,0,0-1,2.4,3.5,3.5,0,0,0,7.1,0A4.3,4.3,0,0,0,52.6,56.1ZM27,67.2V82H73V67.2ZM50,77.6a3,3,0,1,1,3-3A3,3,0,0,1,50,77.6Z"/>
	</symbol>

	<symbol id="icon_service_dakwerkzaamheden" viewBox="0 0 100 100">
		<path d="M27.3,65.9H14L28.5,53.3V40.1h8.7v5.4L50,34.2,86,65.9H72.7L50,45.9Z"/>
	</symbol>

	<symbol id="icon_service_duurzaamheid" viewBox="0 0 100 100">
		<path d="M55.7,28.9m-35,30.6,6.9-5.6s11.8.8,16.3,4.9,3.1,8.8-.7,11.5a8.1,8.1,0,0,1-4.6,1.6,7.1,7.1,0,0,1-5.4-2.7c-3.5-4.3-1.8-12.8-5.6-15.2ZM75.6,81.4h-48v2.8h48Zm2-63.6s-22.5,8.5-29,19c-4.9,7.9-2.3,15.8,3.8,20A64.9,64.9,0,0,1,63.8,39.7a77.7,77.7,0,0,0-9.7,18l2.6,1.1a18.5,18.5,0,0,0,5.9,1c6.1,0,11.1-2,13.1-9C78.6,39.8,71.6,24.8,77.6,17.8Zm-25.2,39a67.9,67.9,0,0,0-6.3,26h2.8a69.8,69.8,0,0,1,5-25.1Z"/>
	</symbol>

	<symbol id="icon_service_electriciteit" viewBox="0 0 100 100">
		<path d="M59.4,16.6,41.3,51.1l25.1-7.8L52.5,73.4,58.1,72l-9,10.7L47,69.9l4,3.2,6.1-22.8L33.6,58.4,50.4,16.9Z"/>
	</symbol>

	<symbol id="icon_service_gas" viewBox="0 0 100 100">
		<path d="M29.3,25.6c.7.1-1,4.6-.1,9.7S40.3,56.8,39.9,62.6c-.3,3.7-8.7,12.3-9.6,11.7s2.6-6.1,1.3-11S20.9,43,20.9,36.5c0-4.7,7.7-11.2,8.3-10.9Zm19.3-6.6C47.8,18.7,38,26.9,38,32.9c0,8.2,11.4,26.8,13.4,34s-2.8,13.6-1.6,13.9S61.6,70.7,62,66c.5-7.4-12.5-29-13.5-34.6s.9-12.2.1-12.4Zm19.9,6.6c-.6-.3-8.3,6.1-8.3,10.9,0,6.5,9,21.2,10.5,26.8s-2.2,10.7-1.3,11,9.3-8,9.6-11.7c.4-5.8-9.8-22.9-10.6-27.3s.7-9.6.1-9.7Z"/>
	</symbol>

	<symbol id="icon_service_gebroken-pijp" viewBox="0 0 100 100">
		<path d="M66.3,32.5v25H42.8V54.9h5.1v-3h7.6V49.1H45.1v3H40v5.4H33.8v-25ZM46.1,69.1l-4.5-7-4.6,7a4.7,4.7,0,0,0,4.2,7h.7a4.7,4.7,0,0,0,4.2-7ZM31.5,61.5v-33h-11v4h-6v25h6v4Zm51-29h-3v-4h-11v33h11v-4h6v-25Z"/>
	</symbol>
	
	<symbol id="icon_service_hand" viewBox="0 0 100 100">
		<path d="M68.8,60h3.6l.4-1.7.9-.4,1.5.9,2.6-2.6-.9-1.5.4-.9,1.7-.4V49.8l-1.7-.4-.4-.9.9-1.5-2.6-2.6-1.5.9-.9-.4-.4-1.7H68.8l-.4,1.7-.9.4-1.5-.9-2.6,2.6.9,1.5-.4.9-1.7.4v3.6l1.7.4.4.9-.9,1.5,2.6,2.6,1.5-.9.9.4Zm-2.1-8.4a3.9,3.9,0,1,1,3.9,3.9A3.9,3.9,0,0,1,66.7,51.6Zm-11.1-4,1.6,1.9,4.5-1.9-.2-2.5a12.7,12.7,0,0,0,2.6-2.6l2.5.2,1.9-4.5-1.9-1.6a12.7,12.7,0,0,0,0-3.7l1.9-1.6-1.9-4.5-2.5.2a12.7,12.7,0,0,0-2.6-2.6l.2-2.5L57.2,20l-1.6,1.9a12.7,12.7,0,0,0-3.7,0L50.2,20l-4.5,1.9.2,2.5a12.7,12.7,0,0,0-2.6,2.6l-2.5-.2L39,31.2l1.9,1.6a12.7,12.7,0,0,0,0,3.7L39,38.2l1.9,4.5,2.5-.2a12.7,12.7,0,0,0,2.6,2.6l-.2,2.5,4.5,1.9,1.6-1.9A12.7,12.7,0,0,0,55.6,47.5Zm-9-9.9a7.8,7.8,0,1,1,10.2,4.2A7.7,7.7,0,0,1,46.5,37.7ZM78,74.1v4.4l-2.7,1.6H53.5L36.8,67.6H18V55H43.9l5.5,2.4L62.8,70.7v1.6l-2.6,2.5H58.5l-8.3-7.2-.8.8,8.6,7.9h2.4l4.3-3.6H75.3Z"/>
	</symbol>

	<symbol id="icon_service_lekkende-kraan" viewBox="0 0 100 100">
		<path d="M37.4,64.3,36,66.7c-.9,1.7-4,7.3-4,9.6a5.3,5.3,0,1,0,10.7,0c0-2.3-3.1-7.9-4-9.6ZM76.5,30.6V47.5H46.1V59.1H28.7V47.5H22.6V30.6H62.1V22.9H50.9V20H76.1v2.8H64.9v7.7Z"/>
	</symbol>

	<symbol id="icon_service_luchtbehandeling" viewBox="0 0 100 100">
		<path d="M44.5,29.2a20.9,20.9,0,0,1,10.7-.1l-.5.8a18.1,18.1,0,0,0-2.5,9.3L50,38.9a11,11,0,0,0-6,1.8A20.7,20.7,0,0,1,44.5,29.2ZM39.1,47.6a11.2,11.2,0,0,1,4.7-6.9,18.1,18.1,0,0,1-4.8-8.4l-.2-.8a21.7,21.7,0,0,0-7.5,7.6A20.8,20.8,0,0,0,39.1,47.6Zm31.7-3.1A23.5,23.5,0,0,0,64,43.4a17.5,17.5,0,0,0-4.7.6,11,11,0,0,1,1.5,8.2,18.1,18.1,0,0,1,9.3,2.5l.8.5a20.9,20.9,0,0,0-.1-10.7ZM52.4,39.1a11.2,11.2,0,0,1,6.9,4.7,18.1,18.1,0,0,1,8.4-4.8l.8-.2a21.7,21.7,0,0,0-7.6-7.5A20.8,20.8,0,0,0,52.4,39.1ZM47.6,60.9a11.1,11.1,0,0,1-6.8-4.7,18.1,18.1,0,0,1-8.4,4.8l-.8.2a21.7,21.7,0,0,0,7.6,7.5A20.8,20.8,0,0,0,47.6,60.9ZM80,20V80H20V20ZM23.7,26.7a3,3,0,1,0,3-3A3,3,0,0,0,23.7,26.7Zm6,46.4a3,3,0,1,0-3,3A3,3,0,0,0,29.6,73ZM74.4,50A24.4,24.4,0,1,0,50,74.4,24.5,24.5,0,0,0,74.4,50ZM76,73a3,3,0,1,0-3,3A3,3,0,0,0,76,73Zm0-46.4a3,3,0,1,0-3,3A3,3,0,0,0,76,26.7ZM60.9,52.4a11.2,11.2,0,0,1-4.7,6.9,18.1,18.1,0,0,1,4.8,8.4l.2.8a21.7,21.7,0,0,0,7.5-7.6A20.8,20.8,0,0,0,60.9,52.4ZM36,56.6h0a17.7,17.7,0,0,0,4.7-.6,11,11,0,0,1-1.5-8.2,18,18,0,0,1-9.3-2.5l-.8-.5a20.9,20.9,0,0,0,.1,10.7A23.6,23.6,0,0,0,36,56.6Zm20,2.7a11,11,0,0,1-6,1.8l-2.2-.2a18.1,18.1,0,0,1-2.5,9.3l-.5.8a20.9,20.9,0,0,0,10.7-.1A20.8,20.8,0,0,0,56,59.4Z"/>
	</symbol>

	<symbol id="icon_service_onderhoud-1" viewBox="0 0 100 100">
		<path d="M31.5,57.1,52.1,77.7l-9.9,9.9L19.3,64.7l9.9-9.9,2.3,2.3Zm43.7-1h0l2-2-.4-3.7-1.6-1.6-4.7,4.7L69,52l4.7-4.7-3.3-3.3-4.7,4.7-1.4-1.4L69,42.7l-3.8-3.8-4.7,4.7-1.4-1.4,4.7-4.7-2.7-2.7H57l-1.8,1.8-8.8-8.8V21.5l-5.7-5.7H33.1l5.6,5.6-5.2,5.2L27.9,21v7l6.2,6.2h5.7L43,37.4l-5.7,5.7-.5,8.8-3.4,3.4L51.5,73.5l3.4-3.4,7.8-1.6,6-6h0L73,66.9h3.4l3.1-3.1V60.4Z"/>
	</symbol>

	<symbol id="icon_service_onderhoud-2" viewBox="0 0 100 100">
		<path d="M24,67l9,9L19.5,80.5ZM79.5,29.5a3.6,3.6,0,0,0,0-5.1l-3.9-3.9a3.6,3.6,0,0,0-5.1,0L67.1,24l9,9ZM66.2,55.4l-3.7-3.7-7.2,7.2,2.3,2.3L54,64.7l2.8,2.8L60.4,64,63,66.5l-3.6,3.6L62.2,73l3.6-3.6,2.5,2.5-3.6,3.6,5,5L80.5,69.7ZM64.5,26.5,50.9,40.1,30.3,19.5,19.5,30.3l5,5,3.6-3.6,2.5,2.5-3.6,3.6,2.8,2.8,3.6-3.6,2.5,2.5-3.6,3.6L35.3,46l3.6-3.6L41.4,45l-3.6,3.6,2.3,2.3L26.6,64.5l9,9,38-38Z"/>
	</symbol>

	<symbol id="icon_service_onderhoud-3" viewBox="0 0 100 100">
		  <path d="M20,35.6H80v8.2H20Zm16.4-9.3v6.8h2.7V27.6l1.4-1.4H59.5l1.4,1.4v5.5h2.7V26.2l-2.7-2.7H39.1ZM62.3,46.5v8.4l-2.7,2.7H40.5l-2.7-2.7V46.5H20v30H80v-30Zm-8.2,4.3A4.1,4.1,0,1,0,50,54.9a4.1,4.1,0,0,0,4.1-4.1"/>
	</symbol>

	<symbol id="icon_service_ontstopper" viewBox="0 0 100 100">
		  <path d="M83.5,55.9,55.9,83.5l-4.2-17-3.5-3.5,3.5-3.5h0l-3.5-3.5,2.1-2.1h0L16.3,19.8l3.5-3.5L53.8,50.2l2.1-2.1,3.5,3.5,3.5-3.5,3.5,3.5Z"/>
	</symbol>

	<symbol id="icon_service_ontzorgexpert" viewBox="0 0 100 100">
		<path d="M26.9,80.6H24v-4h-10a1.8,1.8,0,0,1-1.3-3L66.9,19a1.8,1.8,0,0,1,1.3-.5h0a1.8,1.8,0,0,1,1.3.5l18,18.1-2,2L68.2,21.8,16.6,73.7H26.9Zm-12.1-5h0ZM67.4,21h0ZM69,21h0Z"/>
	</symbol>

	<symbol id="icon_service_riolering" viewBox="0 0 100 100">
		<path d="M69,30.7h-20V21.2H69ZM88,60.2v-20H78.5v20ZM31,78.8H51V69.3H31ZM12,39.8v20h9.5v-20Zm54.2,3.2V31.6H51.9V57.3H77.6V43.1ZM33.8,68.4H48.1V42.7H22.4V56.9H33.8Z"/>
	</symbol>

	<symbol id="icon_service_sanitair-douche" viewBox="0 0 100 100">
		<path d="M58.7,46.6H57.3V38.5h1.4Zm0,4H57.3V62.7h1.4Zm0-20.2H57.3v4h1.4Zm-6,24.4H51.2v4h1.4Zm0-12.3H51.2v8.1h1.4Zm0-12.1H51.2v8.1h1.4ZM64.8,54.8H63.3v4h1.4Zm0-12.3H63.3v8.1h1.4Zm0-12.1H63.3v8.1h1.4Zm-18.1,0H45.2v4h1.4Zm0,8.1H45.2v4h1.4Zm0,8.1H45.2V62.7h1.4ZM70.8,30.5H69.4v4h1.4Zm0,8.1H69.4v4h1.4Zm0,8.1H69.4V62.7h1.4ZM59.9,25.1v-8H23.1V83.5h2.8V19.9H57.1v5.2H42.5v2.8h31V25.1Z"/>
	</symbol>

	<!--<symbol id="icon_service_storing" viewBox="0 0 100 100">
		<path d="M79.2,66.5,56.4,26.1A7.2,7.2,0,0,0,50,22.4a7.3,7.3,0,0,0-6.4,3.7L20.8,66.5a7.3,7.3,0,0,0,0,7.4,7.2,7.2,0,0,0,6.4,3.7H72.9a7.2,7.2,0,0,0,6.4-3.8A7.3,7.3,0,0,0,79.2,66.5Z"/>
		<path d="M50.9,67a.9.9,0,1,1-1.9,0,.9.9,0,1,1,1.9,0"/>
		<line x1="50" y1="38.3" x2="50" y2="61.6"/>
	</symbol>-->

	<symbol id="icon_service_sifon" viewBox="0 0 100 100">
		<path d="M33,23V19.5H47V23Zm0,1H30V34H50V24H33Zm.2,42H30V76H50V66H33.2Zm38-30.4V30H61v5.6H58v2.8h3v9.7H47.2V35h-14V65h14V58.4h24V38.4h3.3V35.6ZM33,77v3.5H47V77Z"/>
	</symbol>

	<symbol id="icon_service_thermometer" viewBox="0 0 100 100">
		<path d="M53,53.1H67.5V84.5h-35V61.2H41V58.4H32.5V53.1H47v10a8,8,0,1,0,6,0ZM32.5,15.5V25.9H41v2.8H32.5V34h5.9v2.8H32.5v5.4H41V45H32.5v5.2H47V22.5h6V50.3H67.5V15.5Z"/>
	</symbol>

	<symbol id="icon_service_thermostaat" viewBox="0 0 100 100">
		<path d="M20,20V80H80V20ZM30.5,74A4.5,4.5,0,1,1,35,69.5,4.5,4.5,0,0,1,30.5,74ZM41.2,41.8l-2.5,1.4,9,16.1L27,48.5C27,38.8,37.3,31,50,31s23,7.8,23,17.5l-23,12,1.2-.7ZM69,74.5A4.5,4.5,0,1,1,73.5,70,4.5,4.5,0,0,1,69,74.5Z"/>
	</symbol>

	<symbol id="icon_service_verwarming-1" viewBox="0 0 100 100">
		<path d="M80,70.8H20.2V25.3H80Zm7.8-39.4H82.6v3.9h5.2ZM25.4,70.8v3.9h7.2V70.8m35.1,0v3.9h7.2V70.8M30.3,30.2H25.1V65.9h5.2Zm11.4,0H36.4V65.9h5.2Zm34.1,0H70.6V65.9h5.2ZM53,30.2H47.8V65.9H53Zm11.4,0H59.2V65.9h5.2Z"/>
	</symbol>

	<symbol id="icon_service_verwarming-2" viewBox="0 0 100 100">
		<path d="M69.7,31.7a7,7,0,0,1,0-7.5,6,6,0,0,0,0-6.1l1.2-.8a7.3,7.3,0,0,1,0,7.6,5.6,5.6,0,0,0,0,5.9Zm-3.1-.8a5.6,5.6,0,0,1,0-5.9,7.3,7.3,0,0,0,0-7.6l-1.2.8a5.9,5.9,0,0,1,0,6.1,7,7,0,0,0,0,7.5Zm-4.3,0a5.6,5.6,0,0,1,0-5.9,7.3,7.3,0,0,0,0-7.6l-1.2.8a6,6,0,0,1,0,6.1,7,7,0,0,0,0,7.5Zm18.5,6.6v3.5l-4.5.3V39.9H74.2V82.1H21.9V79.5H19.1V77.9h2.8V33.7H74.2v4.6h2.1V37.1ZM29.5,37H25.6v2.2h.7V76.9a1.2,1.2,0,1,0,2.5,0V39.2h.7Zm6.8,2.2V37H32.4v2.2h.7V76.9a1.3,1.3,0,1,0,2.5,0V39.2ZM43.1,37H39.2v2.2h.7V76.9a1.2,1.2,0,1,0,2.5,0V39.2h.7Zm6.8,0H45.9v2.2h.7V76.9a1.2,1.2,0,1,0,2.5,0V39.2h.7Zm6.7,0H52.7v2.2h.7V76.9a1.3,1.3,0,0,0,1.2,1.3,1.3,1.3,0,0,0,1.3-1.3V39.2h.7Zm6.7,2.2V37H59.4v2.2h.7V76.9a1.2,1.2,0,1,0,2.5,0V39.2ZM70.1,37H66.2v2.2h.7V76.9a1.2,1.2,0,1,0,2.5,0V39.2h.7Z"/>
	</symbol>


	<symbol id="icon_service_warmtepomp" viewBox="0 0 100 100">
		<path d="M75.8,43.5H59.9V28.3h9.5l-3.1,3.1,1.4,1.4L72.5,28a1,1,0,0,0,0-1.4l-4.8-4.8-1.4,1.4,3.1,3.1H58.9a1,1,0,0,0-1,1V43.5H51V20.4l3.1,3.1,1.4-1.4-4.8-4.8a1,1,0,0,0-1.4,0l-4.8,4.8,1.4,1.4L49,20.4V43.5H42.1V27.3a1,1,0,0,0-1-1H30.6l3.1-3.1-1.4-1.4-4.8,4.8a1,1,0,0,0,0,1.4l4.8,4.8,1.4-1.4-3.1-3.1h9.5V43.5H18.3V82H81.7V43.5ZM26.2,79.2h-2V46.3h2Zm4.5,0h-2V46.3h2Zm4.5,0h-2V46.3h2Zm4.5,0h-2V46.3h2Zm4.5,0h-2V46.3h2Zm4.5,0h-2V46.3h2Zm4.5,0h-2V46.3h2Zm4.5,0h-2V46.3h2Zm4.5,0h-2V46.3h2Zm4.5,0h-2V46.3h2Zm4.5,0h-2V46.3h2Zm4.5,0h-2V46.3h2Z"/>
	</symbol>

	<symbol id="icon_service_water" viewBox="0 0 100 100">
		<path d="M57.3,72.9a17.8,17.8,0,0,1-31,0,16.5,16.5,0,0,1-.2-16.6L41.8,31.4l15.7,25a16.3,16.3,0,0,1-.2,16.5ZM74.7,43.3a10.9,10.9,0,0,1-19,0,10.1,10.1,0,0,1-.1-10.1L65.2,18l9.6,15.3a10,10,0,0,1-.1,10.1Z"/>
	</symbol>


	<symbol id="icon_service_zonneenergie" viewBox="0 0 100 100">
		<path d="M50,41.7a7.5,7.5,0,1,0-7.5-7.5A7.5,7.5,0,0,0,50,41.7ZM82.5,74.5h-65l8-15h49ZM50.7,22.8H49.3V16.4h1.4Zm0,29.8H49.3V46.2h1.4Zm0,28.2h5.8v1.4h-13V80.8h5.8V74.2h1.4Zm17.4-47v1.4H61.7V33.8ZM38.3,35.2H31.9V33.8h6.4Zm20.5-8.5-1-1,4.5-4.5,1,1ZM41.2,42.3l1,1-4.5,4.5-1-1Zm17.6,0,4.5,4.5-1,1-4.5-4.5ZM37.7,21.2l4.5,4.5-1,1-4.5-4.5Z"/>
	</symbol>


	<!--		
		TOPTASKS 		
	-->

	<symbol id="icon_toptask_bellen" viewBox="0 0 100 100">
  		  <path d="M66.1,65l13.4,1.9-.8,12.6C63,79.7,50.8,78,36.8,64S20.5,37.1,20.5,21.4l12.6-.8L35.1,34l-6.9,8.5A65.9,65.9,0,0,0,40.7,60.2,55.5,55.5,0,0,0,57.7,72Z"/>
	</symbol>

	<symbol id="icon_toptask_informatie" viewBox="0 0 100 100">
		<path d="M45,23.1a4,4,0,1,1,4,4A4,4,0,0,1,45,23.1Zm6.1,54.7V31.2H41v4.3h5.9V77.8H40V82H58V77.8Z"/>
	</symbol>

	<symbol id="icon_toptask_mail" viewBox="0 0 100 100">
		<path d="M50,52.7,22.1,31.9H77.9Zm0,2.5L20.4,33V68.1H79.6V33Z"/>
	</symbol>

	<symbol id="icon_toptask_offerte" viewBox="0 0 100 100">
		<path d="M71.5,31.8H60V20.2Zm.4,2.2V80.1H28.1V19.8H57.8V34ZM36.4,45.9H51.1v-2H36.4ZM63.6,68.5H36.4v2H63.6Zm0-8.2H36.4v2H63.6Zm0-8.2H36.4v2H63.6Z"/>
	</symbol>

	<symbol id="icon_toptask_storing" viewBox="0 0 100 100">
		<path d="M67.4,50.2,50,20.4,32.6,50.2,15.2,80.1H84.8ZM48.6,39.5h2.8v25H48.6ZM48,70.2a2,2,0,1,1,4,0A2,2,0,1,1,48,70.2Z"/>
	</symbol>
  		

</svg>



